************* Module node_graph
node_graph/__init__.py:1:0: [C0111(missing-docstring), ] Missing module docstring
node_graph/__init__.py:12:0: [W0403(relative-import), ] Relative import 'core.app', should be 'node_graph.core.app'
node_graph/__init__.py:22:0: [W0613(unused-argument), Main.__init__] Unused argument 'gui'
node_graph/__init__.py:19:0: [R0903(too-few-public-methods), Main] Too few public methods (0/2)

------------------------------------------------------------------
Your code has been rated at 7.86/10 (previous run: 7.86/10, +0.00)

